<?xml version="1.0" encoding="iso-8859-1"?>
<!-- Generator: Adobe Illustrator 18.1.1, SVG Export Plug-In . SVG Version: 6.00 Build 0)  -->
<svg version="1.1" id="Capa_1" xmlns="http://www.w3.org/2000/svg" xmlns:xlink="http://www.w3.org/1999/xlink" x="0px" y="0px"
	 viewBox="0 0 170.05 170.05" style="enable-background:new 0 0 170.05 170.05;" xml:space="preserve">
<g>
	<path style="fill:#010002;" d="M151.681,0c-1.647,0-2.983,1.343-2.983,2.983v88.882c0,14.804-12.047,26.851-26.851,26.851H26.15
		l41.571-41.535c1.164-1.164,1.164-3.061,0-4.219c-1.164-1.164-3.055-1.164-4.219,0L15.38,121.056l48.123,48.123
		c0.585,0.585,1.349,0.871,2.112,0.871c0.764,0,1.528-0.292,2.112-0.871c1.164-1.164,1.164-3.061,0-4.219l-40.27-40.276h94.396
		c18.098,0,32.818-14.72,32.818-32.818V2.983C154.664,1.343,153.334,0,151.681,0z"/>
</g>
<g>
</g>
<g>
</g>
<g>
</g>
<g>
</g>
<g>
</g>
<g>
</g>
<g>
</g>
<g>
</g>
<g>
</g>
<g>
</g>
<g>
</g>
<g>
</g>
<g>
</g>
<g>
</g>
<g>
</g>
</svg>
